Mullen TreeFlux Analysis
…
my_data <- my_data %>%
  left_join(tree_map, by = "ID") %>%
  mutate(Species = coalesce(Species, Species_from_map)) %>%
  select(-Species_from_map)

message("Trees with NA species: ", sum(is.na(my_data$Species)))

## Trees with NA species: 0

Prep Soil Temp Data

read_L2_variable(variable = "soil-temp-5cm", path = "Sensor_Data/", quiet=TRUE)

## # A tibble: 3,156,480 × 12
##    Site  Plot  TIMESTAMP           Instrument Instrument_ID Sensor_ID Location
##    <chr> <chr> <dttm>              <chr>      <chr>         <chr>     <chr>   
##  1 TMP   C     2020-01-01 00:00:00 TEROS12    12            T108      C6      
##  2 TMP   C     2020-01-01 00:00:00 TEROS12    12            T131      H6      
##  3 TMP   C     2020-01-01 00:00:00 TEROS12    11            T138      C3      
##  4 TMP   C     2020-01-01 00:00:00 TEROS12    13            T174      H3      
##  5 TMP   C     2020-01-01 00:00:00 TEROS12    13            T177      F4      
##  6 TMP   C     2020-01-01 00:15:00 TEROS12    12            T108      C6      
##  7 TMP   C     2020-01-01 00:15:00 TEROS12    12            T131      H6      
##  8 TMP   C     2020-01-01 00:15:00 TEROS12    11            T138      C3      
##  9 TMP   C     2020-01-01 00:15:00 TEROS12    13            T174      H3      
## 10 TMP   C     2020-01-01 00:15:00 TEROS12    13            T177      F4      
## # ℹ 3,156,470 more rows
## # ℹ 5 more variables: research_name <chr>, Value <dbl>, N_avg <int>,
## #   N_drop <int>, Value_MAC <dbl>
…
soil_temp_daily <- soil_temp_data %>%
  mutate(
    TIMESTAMP = as.POSIXct(TIMESTAMP),
    Date = as.Date(TIMESTAMP),
    Value = as.numeric(Value) ) %>%
  filter(!is.na(Value)) %>%  
  group_by(Site, Plot, Date) %>%
  summarise(
    soil_temp_daily_mean = mean(Value),
    n = n(),
    coverage = n / 480,      
    .groups = "drop"  )
print(soil_temp_daily)

## # A tibble: 6,020 × 6
##    Site  Plot  Date       soil_temp_daily_mean     n coverage
##    <chr> <chr> <date>                    <dbl> <int>    <dbl>
##  1 TMP   C     2020-05-05                12.7     37   0.0771
##  2 TMP   C     2020-05-06                11.9     96   0.2   
##  3 TMP   C     2020-05-07                11.4     96   0.2   
##  4 TMP   C     2020-05-08                11.9     96   0.2   
##  5 TMP   C     2020-05-09                 9.68    96   0.2   
##  6 TMP   C     2020-05-10                 9.76    96   0.2   
##  7 TMP   C     2020-05-11                11.1     96   0.2   
##  8 TMP   C     2020-05-12                10.6     96   0.2   
##  9 TMP   C     2020-05-13                11.3     96   0.2   
## 10 TMP   C     2020-05-14                12.2     96   0.2   
## # ℹ 6,010 more rows
…
my_data %>% ggplot(aes( x = Year, y = CH4_lin_flux.estimate, color
= Plot )) + geom_point(alpha = 0.6) + facet_wrap(~ Species) + labs(
title = “CH4 Flux by Species (2021–2025)” )

my_data %>% ggplot(aes( x = Year, y = CO2_lin_flux.estimate, color
= Plot )) + geom_point(alpha = 0.6) + facet_wrap(~ Species) + labs(
title = “CO2 Flux by Species (2021–2025)”, y = “CO2 Flux” )

Numerical summaries

print(my_data)

## # A tibble: 3,361 × 12
## # Groups:   Year, Date, Plot, Timepoint, Species, ID [3,361]
##     Year Date       Plot       Timepoint Species     ID    CO2_lin_flux.estimate
##    <dbl> <date>     <chr>      <chr>     <chr>       <chr>                 <dbl>
##  1  2021 2021-10-08 Control    (none)    Tulip Popl… C1                   0.425 
##  2  2021 2021-10-08 Control    (none)    Red Maple   C10                  0.227 
##  3  2021 2021-10-08 Control    (none)    Red Maple   C12                  0.0817
##  4  2021 2021-10-08 Control    (none)    Beech       C14                  0.293 
##  5  2021 2021-10-08 Control    (none)    Beech       C16                  0.0628
##  6  2021 2021-10-08 Control    (none)    Beech       C17                  0.139 
##  7  2021 2021-10-08 Control    (none)    Tulip Popl… C2                   0.228 
##  8  2021 2021-10-08 Control    (none)    Tulip Popl… C6                   0.181 
##  9  2021 2021-10-08 Control    (none)    Red Maple   C8                   1.43  
## 10  2021 2021-10-08 Freshwater (none)    Tulip Popl… F1                   0.276 
## # ℹ 3,351 more rows
## # ℹ 5 more variables: CO2_lin_r.squared <dbl>, CO2_rob_flux.estimate <dbl>,
## #   CH4_lin_flux.estimate <dbl>, CH4_lin_r.squared <dbl>,
## #   CH4_rob_flux.estimate <dbl>
…
